<?xml version="1.0" standalone="no"?>
<!DOCTYPE svg PUBLIC "-//W3C//DTD SVG 20010904//EN"
 "http://www.w3.org/TR/2001/REC-SVG-20010904/DTD/svg10.dtd">
<svg version="1.0" xmlns="http://www.w3.org/2000/svg"
 width="260.000000pt" height="260.000000pt" viewBox="0 0 260.000000 260.000000"
 preserveAspectRatio="xMidYMid meet">
<metadata>
Created by potrace 1.11, written by Peter Selinger 2001-2013
</metadata>
<g transform="translate(0.000000,260.000000) scale(0.100000,-0.100000)"
fill="#000000" stroke="none">
<path d="M1385 1975 c-70 -16 -107 -38 -149 -86 -52 -61 -69 -124 -70 -254
l-1 -110 99 0 98 0 2 100 c3 129 23 162 101 167 77 4 108 -34 112 -138 4 -134
-43 -242 -166 -382 -219 -248 -247 -307 -246 -522 l0 -105 303 -3 302 -2 1 40
c0 22 1 58 1 80 0 22 -1 47 -1 55 -1 13 -30 15 -195 15 -217 0 -211 -2 -195
70 12 54 54 115 149 220 190 209 250 327 256 506 5 142 -20 222 -89 286 -31
28 -82 56 -120 64 -47 11 -144 10 -192 -1z"/>
<path d="M54 1898 c4 -40 9 -86 11 -103 4 -25 22 -186 41 -365 10 -95 16 -146
19 -170 2 -14 6 -52 10 -85 3 -33 8 -71 10 -85 2 -14 7 -61 11 -105 4 -44 8
-82 9 -85 1 -3 5 -41 10 -85 5 -44 9 -83 11 -87 1 -5 2 -26 3 -48 l1 -40 144
0 c80 0 147 3 149 8 3 4 8 45 12 91 4 47 8 92 10 100 1 9 6 50 10 91 3 41 8
82 10 90 2 8 6 49 10 90 3 41 8 84 10 95 2 11 4 35 4 53 1 29 17 48 18 20 1
-29 15 -183 18 -188 2 -3 6 -41 9 -85 4 -44 9 -91 11 -105 2 -14 6 -54 10 -90
3 -36 8 -74 10 -85 2 -11 4 -35 4 -52 l1 -33 139 0 c77 0 142 3 144 8 3 4 8
43 11 87 4 44 9 87 11 95 2 8 7 44 10 80 6 82 14 155 20 200 2 19 7 60 10 90
3 30 7 71 10 90 2 19 7 60 11 90 3 30 7 66 9 80 7 59 18 157 20 180 6 60 17
161 26 235 5 44 9 83 9 87 0 5 -42 8 -93 8 -68 0 -94 -3 -94 -12 0 -20 -14
-169 -18 -187 -1 -9 -6 -56 -10 -106 -4 -49 -8 -92 -10 -95 -2 -3 -6 -42 -10
-85 -3 -44 -8 -91 -10 -105 -2 -14 -6 -59 -10 -100 -4 -41 -8 -86 -10 -100 -6
-43 -18 -174 -17 -193 0 -9 -3 -15 -8 -12 -5 3 -8 13 -8 23 1 9 -2 40 -5 67
-4 28 -9 79 -12 115 -3 36 -8 81 -10 100 -2 19 -7 64 -10 100 -4 36 -8 79 -10
95 -2 17 -6 64 -10 105 -3 41 -8 86 -10 100 -2 14 -7 59 -11 100 -3 41 -8 84
-9 95 -1 11 -3 37 -4 58 l-1 37 -105 0 -105 0 -1 -27 c0 -16 -2 -35 -3 -43 -2
-8 -6 -49 -10 -90 -4 -41 -8 -91 -10 -110 -3 -19 -7 -69 -11 -110 -8 -91 -12
-139 -20 -205 -5 -53 -9 -90 -21 -220 -4 -44 -8 -91 -9 -105 -2 -14 -3 -40 -4
-59 -2 -70 -14 -21 -26 104 -4 39 -8 84 -10 100 -2 17 -7 55 -10 85 -3 30 -8
71 -10 90 -2 19 -7 64 -10 100 -3 36 -8 76 -10 90 -2 14 -7 57 -11 95 -3 39
-8 81 -9 95 -1 14 -6 57 -10 95 -4 39 -9 77 -10 85 -2 8 -4 18 -4 23 -1 4 -47
7 -102 7 l-102 0 7 -72z"/>
<path d="M1906 1413 c1 -544 1 -559 22 -613 45 -117 131 -171 278 -175 149 -5
236 41 292 155 l27 55 3 568 3 567 -100 0 -100 0 0 -533 c0 -329 -4 -544 -10
-560 -23 -61 -121 -81 -168 -35 -14 14 -28 43 -32 64 -4 22 -7 270 -6 552 l0
512 -105 0 -105 0 1 -557z"/>
</g>
</svg>
